tools/measurements/Axi2814-20_fast.csv

X,CH1,CH2,Start,Increment,
Sequence,Volt,Volt,-1.400000e-02,2.000000e-05,
0,1.400000e+00,7.600000e-01,
1,1.320000e+00,8.800000e-01,
2,1.400000e+00,7.600000e-01,
3,1.320000e+00,8.800000e-01,
4,1.400000e+00,8.200000e-01,
5,1.300000e+00,9.200000e-01,
6,1.280000e+00,8.400000e-01,
7,1.400000e+00,9.400000e-01,
8,1.380000e+00,9.000000e-01,
9,1.300000e+00,1.000000e+00,
10,1.300000e+00,9.400000e-01,
11,1.380000e+00,1.040000e+00,
12,1.380000e+00,9.400000e-01,
13,1.260000e+00,1.080000e+00,
14,1.240000e+00,9.600000e-01,
15,1.380000e+00,1.120000e+00,
16,1.340000e+00,1.060000e+00,
17,1.260000e+00,1.140000e+00,
18,1.340000e+00,1.080000e+00,
19,1.240000e+00,1.160000e+00,
20,1.320000e+00,1.100000e+00,
21,1.240000e+00,1.180000e+00,
22,1.300000e+00,1.140000e+00,
23,1.220000e+00,1.220000e+00,
24,1.280000e+00,1.140000e+00,
25,1.200000e+00,1.240000e+00,
26,1.280000e+00,1.280000e+00,
27,1.140000e+00,1.140000e+00,
28,1.280000e+00,1.320000e+00,
29,1.120000e+00,1.140000e+00,
30,1.220000e+00,1.220000e+00,
31,1.140000e+00,1.300000e+00,
32,1.220000e+00,1.240000e+00,
33,1.120000e+00,1.320000e+00,
34,1.180000e+00,1.260000e+00,
35,1.100000e+00,1.320000e+00,
36,1.160000e+00,1.360000e+00,
37,1.040000e+00,1.240000e+00,
38,1.140000e+00,1.360000e+00,
39,1.020000e+00,1.240000e+00,
40,1.100000e+00,1.340000e+00,
41,1.000000e+00,1.280000e+00,
42,1.080000e+00,1.280000e+00,
43,9.600000e-01,1.360000e+00,
44,1.020000e+00,1.300000e+00,
45,9.400000e-01,1.360000e+00,
46,9.800000e-01,1.300000e+00,
47,8.800000e-01,1.380000e+00,
48,9.400000e-01,1.280000e+00,
49,8.200000e-01,1.420000e+00,
50,9.000000e-01,1.320000e+00,
51,8.000000e-01,1.380000e+00,
52,8.600000e-01,1.380000e+00,
53,7.800000e-01,1.300000e+00,
54,9.400000e-01,1.220000e+00,
55,6.600000e-01,1.500000e+00,
56,8.200000e-01,1.420000e+00,
57,6.800000e-01,1.300000e+00,
58,7.600000e-01,1.320000e+00,
59,6.800000e-01,1.400000e+00,
60,7.400000e-01,1.340000e+00,
61,6.600000e-01,1.400000e+00,
62,7.000000e-01,1.400000e+00,
63,6.200000e-01,1.320000e+00,
64,7.400000e-01,1.280000e+00,
65,5.400000e-01,1.460000e+00,
66,6.600000e-01,1.420000e+00,
67,5.600000e-01,1.320000e+00,
68,6.200000e-01,1.320000e+00,
69,5.400000e-01,1.400000e+00,
70,6.000000e-01,1.380000e+00,
71,4.800000e-01,1.320000e+00,
72,5.400000e-01,1.320000e+00,
73,4.600000e-01,1.380000e+00,
74,5.200000e-01,1.380000e+00,
75,4.200000e-01,1.300000e+00,
76,4.600000e-01,1.360000e+00,
77,3.600000e-01,1.260000e+00,
78,4.200000e-01,1.280000e+00,
79,3.400000e-01,1.360000e+00,
80,3.800000e-01,1.340000e+00,
81,2.800000e-01,1.260000e+00,
82,3.400000e-01,1.260000e+00,
83,2.400000e-01,1.340000e+00,
84,3.000000e-01,1.320000e+00,
85,2.000000e-01,1.240000e+00,
86,2.400000e-01,1.240000e+00,
87,1.600000e-01,1.320000e+00,
88,2.000000e-01,1.300000e+00,
89,1.200000e-01,1.240000e+00,
90,1.800000e-01,1.300000e+00,
91,8.000000e-02,1.220000e+00,
92,1.400000e-01,1.280000e+00,
93,4.000000e-02,1.200000e+00,
94,1.000000e-01,1.280000e+00,
95,0.000000e+00,1.180000e+00,
96,8.000000e-02,1.300000e+00,
97,-8.000000e-02,1.120000e+00,
98,0.000000e+00,1.240000e+00,
99,-8.000000e-02,1.160000e+00,
100,8.000000e-02,1.140000e+00,
101,-1.200000e-01,1.320000e+00,
102,-8.000000e-02,1.180000e+00,
103,-1.400000e-01,1.120000e+00,
104,-1.000000e-01,1.160000e+00,
105,-2.000000e-01,1.080000e+00,
106,-1.400000e-01,1.140000e+00,
107,-2.400000e-01,1.060000e+00,
108,-1.800000e-01,1.100000e+00,
109,-2.800000e-01,1.020000e+00,
110,-2.400000e-01,1.060000e+00,
111,-3.200000e-01,9.800000e-01,
112,-2.800000e-01,1.040000e+00,
113,-3.600000e-01,9.400000e-01,
114,-3.200000e-01,1.000000e+00,
115,-4.200000e-01,9.200000e-01,
116,-3.600000e-01,9.800000e-01,
117,-4.600000e-01,8.800000e-01,
118,-4.200000e-01,9.400000e-01,
119,-5.000000e-01,8.600000e-01,
120,-4.400000e-01,9.200000e-01,
121,-5.400000e-01,8.200000e-01,
122,-4.800000e-01,8.800000e-01,
123,-5.800000e-01,8.000000e-01,
124,-5.200000e-01,8.600000e-01,
125,-6.000000e-01,7.800000e-01,
126,-5.600000e-01,8.400000e-01,
127,-6.400000e-01,7.600000e-01,
128,-5.800000e-01,8.200000e-01,
129,-6.800000e-01,7.200000e-01,
130,-6.200000e-01,7.800000e-01,
131,-7.000000e-01,7.000000e-01,
132,-6.400000e-01,7.600000e-01,
133,-7.400000e-01,6.600000e-01,
134,-6.800000e-01,7.200000e-01,
135,-7.600000e-01,6.200000e-01,
136,-7.000000e-01,6.800000e-01,
137,-7.800000e-01,6.000000e-01,
138,-7.400000e-01,6.600000e-01,
139,-8.200000e-01,5.600000e-01,
140,-7.800000e-01,6.000000e-01,
141,-8.600000e-01,5.200000e-01,
142,-8.000000e-01,6.000000e-01,
143,-8.800000e-01,4.800000e-01,
144,-8.400000e-01,5.200000e-01,
145,-9.200000e-01,4.400000e-01,
146,-8.600000e-01,5.000000e-01,
147,-9.600000e-01,3.800000e-01,
148,-9.200000e-01,4.400000e-01,
149,-1.020000e+00,3.400000e-01,
150,-9.400000e-01,4.000000e-01,
151,-1.040000e+00,3.000000e-01,
152,-1.000000e+00,3.600000e-01,
153,-1.080000e+00,2.600000e-01,
154,-1.020000e+00,3.000000e-01,
155,-1.120000e+00,2.000000e-01,
156,-1.080000e+00,2.600000e-01,
157,-1.180000e+00,1.400000e-01,
158,-1.100000e+00,2.000000e-01,
159,-1.200000e+00,1.000000e-01,
160,-1.140000e+00,1.600000e-01,
161,-1.240000e+00,6.000000e-02,
162,-1.240000e+00,1.200000e-01,
163,-1.160000e+00,0.000000e+00,
164,-1.200000e+00,6.000000e-02,
165,-1.280000e+00,-4.000000e-02,
166,-1.200000e+00,4.000000e-02,
167,-1.280000e+00,-8.000000e-02,
168,-1.220000e+00,-4.000000e-02,
169,-1.300000e+00,-1.200000e-01,
170,-1.220000e+00,-6.000000e-02,
171,-1.300000e+00,-1.600000e-01,
172,-1.220000e+00,-8.000000e-02,
173,-1.340000e+00,-2.200000e-01,
174,-1.260000e+00,-1.600000e-01,
175,-1.340000e+00,-2.600000e-01,
176,-1.340000e+00,-2.000000e-01,
177,-1.260000e+00,-3.200000e-01,
178,-1.280000e+00,-2.600000e-01,
179,-1.360000e+00,-3.600000e-01,
180,-1.380000e+00,-3.000000e-01,
181,-1.280000e+00,-4.200000e-01,
182,-1.360000e+00,-3.600000e-01,
183,-1.300000e+00,-4.600000e-01,
184,-1.300000e+00,-4.000000e-01,
185,-1.380000e+00,-5.000000e-01,
186,-1.300000e+00,-4.400000e-01,
187,-1.380000e+00,-5.400000e-01,
188,-1.320000e+00,-5.000000e-01,
189,-1.380000e+00,-5.800000e-01,
190,-1.380000e+00,-5.400000e-01,
191,-1.320000e+00,-6.400000e-01,
192,-1.380000e+00,-5.800000e-01,
193,-1.320000e+00,-6.800000e-01,
194,-1.380000e+00,-6.000000e-01,
195,-1.300000e+00,-7.200000e-01,
196,-1.300000e+00,-6.600000e-01,
197,-1.400000e+00,-7.800000e-01,
198,-1.420000e+00,-7.200000e-01,
199,-1.280000e+00,-8.400000e-01,
200,-1.380000e+00,-7.600000e-01,
201,-1.300000e+00,-8.600000e-01,
202,-1.360000e+00,-8.000000e-01,
203,-1.300000e+00,-8.800000e-01,
204,-1.280000e+00,-8.400000e-01,
205,-1.380000e+00,-9.400000e-01,
206,-1.280000e+00,-8.800000e-01,
207,-1.360000e+00,-9.600000e-01,
208,-1.280000e+00,-9.000000e-01,
209,-1.340000e+00,-1.000000e+00,
210,-1.320000e+00,-9.400000e-01,
211,-1.260000e+00,-1.040000e+00,
212,-1.320000e+00,-9.800000e-01,
213,-1.260000e+00,-1.060000e+00,
214,-1.320000e+00,-1.020000e+00,
215,-1.240000e+00,-1.100000e+00,
216,-1.300000e+00,-1.060000e+00,
217,-1.240000e+00,-1.120000e+00,
218,-1.300000e+00,-1.080000e+00,
219,-1.220000e+00,-1.160000e+00,
220,-1.280000e+00,-1.100000e+00,
221,-1.200000e+00,-1.180000e+00,
222,-1.260000e+00,-1.120000e+00,
223,-1.180000e+00,-1.200000e+00,
224,-1.240000e+00,-1.140000e+00,
225,-1.180000e+00,-1.220000e+00,
226,-1.240000e+00,-1.160000e+00,
227,-1.160000e+00,-1.260000e+00,
228,-1.220000e+00,-1.200000e+00,
229,-1.140000e+00,-1.280000e+00,
230,-1.180000e+00,-1.220000e+00,
231,-1.120000e+00,-1.280000e+00,
232,-1.160000e+00,-1.240000e+00,
233,-1.080000e+00,-1.300000e+00,
234,-1.140000e+00,-1.240000e+00,
235,-1.060000e+00,-1.320000e+00,
236,-1.100000e+00,-1.260000e+00,
237,-1.020000e+00,-1.320000e+00,
238,-1.080000e+00,-1.280000e+00,
239,-1.000000e+00,-1.320000e+00,
240,-1.040000e+00,-1.280000e+00,
241,-9.600000e-01,-1.340000e+00,
242,-1.020000e+00,-1.400000e+00,
243,-9.000000e-01,-1.260000e+00,
244,-9.600000e-01,-1.380000e+00,
245,-8.400000e-01,-1.260000e+00,
246,-9.000000e-01,-1.300000e+00,
247,-8.200000e-01,-1.360000e+00,
248,-8.800000e-01,-1.300000e+00,
249,-7.800000e-01,-1.380000e+00,
250,-8.400000e-01,-1.360000e+00,
251,-7.600000e-01,-1.300000e+00,
252,-8.000000e-01,-1.280000e+00,
253,-7.000000e-01,-1.400000e+00,
254,-7.600000e-01,-1.380000e+00,
255,-6.800000e-01,-1.300000e+00,
256,-7.400000e-01,-1.320000e+00,
257,-6.400000e-01,-1.380000e+00,
258,-7.000000e-01,-1.320000e+00,
259,-6.200000e-01,-1.380000e+00,
260,-6.600000e-01,-1.320000e+00,
261,-5.800000e-01,-1.380000e+00,
262,-6.400000e-01,-1.380000e+00,
263,-5.400000e-01,-1.300000e+00,
264,-6.000000e-01,-1.300000e+00,
265,-5.200000e-01,-1.380000e+00,
266,-5.600000e-01,-1.280000e+00,
267,-4.800000e-01,-1.380000e+00,
268,-5.400000e-01,-1.400000e+00,
269,-4.000000e-01,-1.240000e+00,
270,-4.800000e-01,-1.340000e+00,
271,-4.000000e-01,-1.260000e+00,
272,-5.400000e-01,-1.180000e+00,
273,-3.000000e-01,-1.440000e+00,
274,-4.000000e-01,-1.300000e+00,
275,-3.200000e-01,-1.240000e+00,
276,-3.600000e-01,-1.300000e+00,
277,-2.800000e-01,-1.220000e+00,
278,-3.200000e-01,-1.300000e+00,
279,-1.800000e-01,-1.160000e+00,
280,-3.200000e-01,-1.320000e+00,
281,-1.800000e-01,-1.180000e+00,
282,-2.400000e-01,-1.260000e+00,
283,-1.600000e-01,-1.200000e+00,
284,-2.000000e-01,-1.200000e+00,
285,-1.200000e-01,-1.260000e+00,
286,-1.600000e-01,-1.240000e+00,
287,-8.000000e-02,-1.180000e+00,
288,-1.400000e-01,-1.160000e+00,
289,-4.000000e-02,-1.260000e+00,
290,-1.000000e-01,-1.240000e+00,
291,0.000000e+00,-1.160000e+00,
292,-8.000000e-02,-1.260000e+00,
293,8.000000e-02,-1.100000e+00,
294,-2.000000e-02,-1.200000e+00,
295,6.000000e-02,-1.140000e+00,
296,2.000000e-02,-1.180000e+00,
297,1.200000e-01,-1.120000e+00,
298,6.000000e-02,-1.160000e+00,
299,1.400000e-01,-1.080000e+00,
300,1.000000e-01,-1.140000e+00,
301,1.800000e-01,-1.060000e+00,
302,1.400000e-01,-1.100000e+00,
303,2.200000e-01,-1.040000e+00,
304,1.800000e-01,-1.080000e+00,
305,2.600000e-01,-1.000000e+00,
306,2.200000e-01,-1.040000e+00,
307,3.000000e-01,-9.600000e-01,
308,2.600000e-01,-1.020000e+00,
309,3.600000e-01,-9.400000e-01,
310,3.200000e-01,-9.800000e-01,
311,4.000000e-01,-9.000000e-01,
312,3.600000e-01,-9.400000e-01,
313,4.600000e-01,-8.800000e-01,
314,4.000000e-01,-9.200000e-01,
315,5.000000e-01,-8.200000e-01,
316,4.200000e-01,-8.200000e-01,
317,5.400000e-01,-9.200000e-01,
318,4.800000e-01,-8.600000e-01,
319,5.600000e-01,-7.800000e-01,
320,5.200000e-01,-8.200000e-01,
321,6.000000e-01,-7.600000e-01,
322,5.600000e-01,-8.000000e-01,
323,6.400000e-01,-7.200000e-01,
324,6.600000e-01,-7.000000e-01,
325,5.400000e-01,-8.400000e-01,
326,6.200000e-01,-7.400000e-01,
327,7.000000e-01,-6.600000e-01,
328,6.600000e-01,-7.200000e-01,
329,7.200000e-01,-6.400000e-01,
330,6.800000e-01,-6.800000e-01,
331,7.600000e-01,-6.200000e-01,
332,7.000000e-01,-6.600000e-01,
333,7.800000e-01,-5.800000e-01,
334,7.400000e-01,-6.200000e-01,
335,8.200000e-01,-5.400000e-01,
336,7.600000e-01,-5.800000e-01,
337,8.400000e-01,-5.200000e-01,
338,7.800000e-01,-5.600000e-01,
339,9.000000e-01,-4.600000e-01,
340,9.200000e-01,-5.200000e-01,
341,8.200000e-01,-4.200000e-01,
342,8.200000e-01,-5.000000e-01,
343,9.400000e-01,-3.800000e-01,
344,9.000000e-01,-4.200000e-01,
345,9.800000e-01,-3.200000e-01,
346,9.400000e-01,-3.800000e-01,
347,1.040000e+00,-3.000000e-01,
348,9.400000e-01,-3.600000e-01,
349,1.080000e+00,-2.200000e-01,
350,1.000000e+00,-3.000000e-01,
351,1.100000e+00,-2.000000e-01,
352,1.040000e+00,-2.600000e-01,
353,1.120000e+00,-1.600000e-01,
354,9.600000e-01,-8.000000e-02,
355,1.220000e+00,-3.200000e-01,
356,1.100000e+00,-1.600000e-01,
357,1.180000e+00,-8.000000e-02,
358,1.140000e+00,-1.200000e-01,
359,1.220000e+00,-4.000000e-02,
360,1.160000e+00,-8.000000e-02,
361,1.240000e+00,0.000000e+00,
362,1.180000e+00,-4.000000e-02,
363,1.260000e+00,6.000000e-02,
364,1.200000e+00,0.000000e+00,
365,1.260000e+00,1.000000e-01,
366,1.220000e+00,6.000000e-02,
367,1.280000e+00,1.400000e-01,
368,1.300000e+00,1.000000e-01,
369,1.220000e+00,1.800000e-01,
370,1.240000e+00,1.400000e-01,
371,1.320000e+00,2.200000e-01,
372,1.260000e+00,1.800000e-01,
373,1.320000e+00,2.600000e-01,
374,1.280000e+00,2.200000e-01,
375,1.340000e+00,3.200000e-01,
376,1.300000e+00,2.800000e-01,
377,1.360000e+00,3.600000e-01,
378,1.300000e+00,3.200000e-01,
379,1.360000e+00,4.200000e-01,
380,1.320000e+00,3.800000e-01,
381,1.380000e+00,4.600000e-01,
382,1.320000e+00,4.200000e-01,
383,1.380000e+00,5.000000e-01,
384,1.320000e+00,4.600000e-01,
385,1.400000e+00,5.600000e-01,
386,1.320000e+00,5.200000e-01,
387,1.400000e+00,6.000000e-01,
388,1.340000e+00,5.600000e-01,
389,1.400000e+00,6.400000e-01,
390,1.400000e+00,6.000000e-01,
391,1.340000e+00,7.000000e-01,
392,1.340000e+00,6.400000e-01,
393,1.420000e+00,7.400000e-01,
394,1.400000e+00,7.000000e-01,
395,1.340000e+00,8.000000e-01,
396,1.400000e+00,7.200000e-01,
397,1.320000e+00,8.600000e-01,
398,1.400000e+00,8.600000e-01,
399,1.320000e+00,7.600000e-01,
400,1.720000e+00,1.240000e+00,
401,1.100000e+00,6.800000e-01,
402,1.440000e+00,8.600000e-01,
403,1.260000e+00,1.040000e+00,
404,1.220000e+00,8.400000e-01,
405,1.400000e+00,1.020000e+00,
406,1.280000e+00,9.400000e-01,
407,1.360000e+00,1.020000e+00,
408,1.260000e+00,9.200000e-01,
409,1.360000e+00,1.060000e+00,
410,1.340000e+00,1.020000e+00,
411,1.260000e+00,1.100000e+00,
412,1.320000e+00,1.040000e+00,
413,1.240000e+00,1.120000e+00,
414,1.340000e+00,1.080000e+00,
415,1.200000e+00,1.220000e+00,
416,1.120000e+00,1.040000e+00,
417,1.360000e+00,1.240000e+00,
418,1.280000e+00,1.120000e+00,
419,1.200000e+00,1.200000e+00,
420,1.280000e+00,1.140000e+00,
421,1.160000e+00,1.240000e+00,
422,1.240000e+00,1.160000e+00,
423,1.180000e+00,1.240000e+00,
424,1.220000e+00,1.180000e+00,
425,1.160000e+00,1.260000e+00,
426,1.220000e+00,1.200000e+00,
427,1.140000e+00,1.280000e+00,
428,1.200000e+00,1.240000e+00,
429,1.120000e+00,1.280000e+00,
430,1.160000e+00,1.240000e+00,
431,1.100000e+00,1.300000e+00,
432,1.140000e+00,1.260000e+00,
433,1.060000e+00,1.320000e+00,
434,1.120000e+00,1.260000e+00,
435,1.020000e+00,1.320000e+00,
436,1.080000e+00,1.340000e+00,
437,9.800000e-01,1.240000e+00,
438,1.040000e+00,1.280000e+00,
439,9.600000e-01,1.340000e+00,
440,1.000000e+00,1.280000e+00,
441,9.200000e-01,1.340000e+00,
442,9.600000e-01,1.340000e+00,
443,8.600000e-01,1.280000e+00,
444,9.200000e-01,1.280000e+00,
445,8.400000e-01,1.360000e+00,
446,8.800000e-01,1.280000e+00,
447,8.000000e-01,1.360000e+00,
448,8.600000e-01,1.300000e+00,
449,7.600000e-01,1.360000e+00,
450,8.200000e-01,1.360000e+00,
451,7.400000e-01,1.300000e+00,
452,7.800000e-01,1.380000e+00,
453,7.000000e-01,1.300000e+00,
454,7.600000e-01,1.320000e+00,
455,6.800000e-01,1.380000e+00,
456,7.200000e-01,1.320000e+00,
457,6.400000e-01,1.380000e+00,
458,6.000000e-01,1.420000e+00,
459,7.200000e-01,1.300000e+00,
460,7.600000e-01,1.480000e+00,
461,5.000000e-01,1.220000e+00,
462,6.200000e-01,1.320000e+00,
463,5.400000e-01,1.380000e+00,
464,6.000000e-01,1.360000e+00,
465,5.200000e-01,1.300000e+00,
466,5.600000e-01,1.360000e+00,
467,4.600000e-01,1.280000e+00,
468,5.200000e-01,1.340000e+00,
469,4.200000e-01,1.280000e+00,
470,4.800000e-01,1.340000e+00,
471,3.800000e-01,1.260000e+00,
472,4.600000e-01,1.200000e+00,
473,2.800000e-01,1.380000e+00,
474,3.800000e-01,1.320000e+00,
475,2.800000e-01,1.240000e+00,
476,3.600000e-01,1.300000e+00,
477,2.600000e-01,1.240000e+00,
478,3.000000e-01,1.300000e+00,
479,2.200000e-01,1.220000e+00,
480,2.600000e-01,1.220000e+00,
481,1.800000e-01,1.300000e+00,
482,2.200000e-01,1.280000e+00,
483,1.400000e-01,1.200000e+00,
484,2.000000e-01,1.320000e+00,
485,6.000000e-02,1.140000e+00,
486,1.600000e-01,1.180000e+00,
487,6.000000e-02,1.260000e+00,
488,1.200000e-01,1.180000e+00,
489,2.000000e-02,1.240000e+00,
490,8.000000e-02,1.220000e+00,
491,0.000000e+00,1.160000e+00,
492,4.000000e-02,1.140000e+00,
493,-6.000000e-02,1.220000e+00,
494,4.000000e-02,1.260000e+00,
495,-1.200000e-01,1.100000e+00,
496,-4.000000e-02,1.180000e+00,
497,-1.400000e-01,1.100000e+00,
498,-8.000000e-02,1.160000e+00,
499,-1.600000e-01,1.080000e+00,
500,-1.200000e-01,1.140000e+00,
501,-2.000000e-01,1.040000e+00,
502,-1.600000e-01,1.100000e+00,
503,-2.400000e-01,1.020000e+00,
504,-1.800000e-01,1.100000e+00,
505,-3.200000e-01,9.400000e-01,
506,-2.400000e-01,1.020000e+00,
507,-3.400000e-01,9.600000e-01,
508,-2.800000e-01,1.000000e+00,
509,-4.000000e-01,9.000000e-01,
510,-3.400000e-01,9.600000e-01,
511,-4.200000e-01,8.800000e-01,
512,-3.800000e-01,9.400000e-01,
513,-4.800000e-01,8.600000e-01,
514,-4.000000e-01,9.400000e-01,
515,-5.400000e-01,7.800000e-01,
516,-4.600000e-01,8.800000e-01,
517,-5.400000e-01,8.000000e-01,
518,-5.000000e-01,8.600000e-01,
519,-5.800000e-01,7.800000e-01,
520,-6.400000e-01,7.000000e-01,
521,-4.800000e-01,9.000000e-01,
522,-5.600000e-01,8.000000e-01,
523,-6.400000e-01,7.200000e-01,
524,-6.000000e-01,7.800000e-01,
525,-6.600000e-01,7.000000e-01,
526,-6.200000e-01,7.600000e-01,
527,-7.200000e-01,6.600000e-01,
528,-6.400000e-01,7.200000e-01,
529,-7.400000e-01,6.400000e-01,
530,-6.800000e-01,7.000000e-01,
531,-7.600000e-01,6.000000e-01,
532,-8.000000e-01,6.800000e-01,
533,-6.800000e-01,5.600000e-01,
534,-7.400000e-01,6.400000e-01,
535,-8.200000e-01,5.400000e-01,
536,-7.600000e-01,6.000000e-01,
537,-8.600000e-01,5.000000e-01,
538,-8.000000e-01,5.600000e-01,
539,-9.000000e-01,4.400000e-01,
540,-8.200000e-01,5.600000e-01,
541,-9.200000e-01,4.400000e-01,
542,-8.600000e-01,4.800000e-01,
543,-9.600000e-01,3.800000e-01,
544,-9.200000e-01,4.200000e-01,
545,-9.800000e-01,3.400000e-01,
546,-9.400000e-01,3.800000e-01,
547,-1.020000e+00,3.000000e-01,
548,-9.800000e-01,3.400000e-01,
549,-1.060000e+00,2.600000e-01,
550,-1.020000e+00,3.000000e-01,
551,-1.100000e+00,2.000000e-01,
552,-1.040000e+00,2.600000e-01,
553,-1.140000e+00,1.600000e-01,
554,-1.080000e+00,2.000000e-01,
555,-1.160000e+00,1.200000e-01,
556,-1.120000e+00,1.600000e-01,
557,-1.220000e+00,2.000000e-02,
558,-1.280000e+00,1.400000e-01,
559,-1.100000e+00,0.000000e+00,
560,-1.080000e+00,1.800000e-01,
561,-1.300000e+00,-6.000000e-02,
562,-1.180000e+00,4.000000e-02,
563,-1.260000e+00,-4.000000e-02,
564,-1.180000e+00,0.000000e+00,
565,-1.280000e+00,-1.000000e-01,
566,-9.400000e-01,2.400000e-01,
567,-1.940000e+00,-8.200000e-01,
568,-1.240000e+00,-1.000000e-01,
569,-1.300000e+00,-1.800000e-01,
570,-1.240000e+00,-1.400000e-01,
571,-1.320000e+00,-2.200000e-01,
572,-1.260000e+00,-1.800000e-01,
573,-1.320000e+00,-2.800000e-01,
574,-1.280000e+00,-2.200000e-01,
575,-1.340000e+00,-3.200000e-01,
576,-1.340000e+00,-2.600000e-01,
577,-1.280000e+00,-3.600000e-01,
578,-1.280000e+00,-3.200000e-01,
579,-1.360000e+00,-4.200000e-01,
580,-1.420000e+00,-5.000000e-01,
581,-1.260000e+00,-3.200000e-01,
582,-1.380000e+00,-4.000000e-01,
583,-1.300000e+00,-5.000000e-01,
584,-1.400000e+00,-5.400000e-01,
585,-1.300000e+00,-4.400000e-01,
586,-1.320000e+00,-4.800000e-01,
587,-1.380000e+00,-5.800000e-01,
588,-1.320000e+00,-5.400000e-01,
589,-1.400000e+00,-6.200000e-01,
590,-1.440000e+00,-5.400000e-01,
591,-1.280000e+00,-6.800000e-01,
592,-1.400000e+00,-6.200000e-01,
593,-1.320000e+00,-7.200000e-01,
594,-1.340000e+00,-6.800000e-01,
595,-1.400000e+00,-7.800000e-01,
596,-1.400000e+00,-7.200000e-01,
597,-1.320000e+00,-8.000000e-01,
598,-1.380000e+00,-7.600000e-01,
599,-1.320000e+00,-8.400000e-01,
600,-1.380000e+00,-8.000000e-01,
601,-1.300000e+00,-8.800000e-01,
602,-1.380000e+00,-8.200000e-01,
603,-1.280000e+00,-9.200000e-01,
604,-1.440000e+00,-8.000000e-01,
605,-1.240000e+00,-9.800000e-01,
606,-1.360000e+00,-9.200000e-01,
607,-1.300000e+00,-1.000000e+00,
608,-1.340000e+00,-9.400000e-01,
609,-1.280000e+00,-1.040000e+00,
610,-1.280000e+00,-9.800000e-01,
611,-1.340000e+00,-1.060000e+00,
612,-1.260000e+00,-1.020000e+00,
613,-1.340000e+00,-1.100000e+00,
614,-1.320000e+00,-1.040000e+00,
615,-1.240000e+00,-1.160000e+00,
616,-1.380000e+00,-1.260000e+00,
617,-1.140000e+00,-1.000000e+00,
618,-1.280000e+00,-1.100000e+00,
619,-1.220000e+00,-1.200000e+00,
620,-1.280000e+00,-1.120000e+00,
621,-1.200000e+00,-1.200000e+00,
622,-1.260000e+00,-1.140000e+00,
623,-1.180000e+00,-1.240000e+00,
624,-1.260000e+00,-1.180000e+00,
625,-1.160000e+00,-1.260000e+00,
626,-1.240000e+00,-1.200000e+00,
